IS415 - Take-home Exercise - Application of Spatial Point Patterns Analysis
…
We use the read_csv() function from the readr package. This allows us to import the water point file into our R notebook. We will store the data set under the variable wp_nga.

Show code

wp_nga = read_csv("data/aspatial/Water_Point_Data_Exchange_-_Plus__WPdx__.csv", show_col_types = FALSE)

Before diving into Data Wrangling, the first step is to get an understanding of the data and its attributes. By using the function glimpse() of the dplyr package, we will be able to view the attributes of this data set and data type of each field.

list(wp_nga)

[[1]]
# A tibble: 406,566 × 70
   row_id `#source`     #lat_d…¹ #lon_…² #repo…³ #stat…⁴ #wate…⁵ #wate…⁶ #wate…⁷
    <dbl> <chr>            <dbl>   <dbl> <chr>   <chr>   <chr>   <chr>   <chr>  
 1 651816 Water For Pe… -1.57e+1   35.1  06/11/… Yes     <NA>    <NA>    Kiosk  
 2 584864 Global Envir…  6.72e+0   -1.58 10/25/… Yes     <NA>    <NA>    Tapsta…
 3 509399 GOAL           8.00e+0  -11.3  12/31/… Yes     <NA>    <NA>    Tapsta…
 4  21983 WASH Liberia   8.08e+0  -10.1  12/04/… Yes     <NA>    <NA>    Tapsta…
 5 660321 Water For Pe…  1.87e-1   30.4  03/14/… Yes     Piped … Piped … <NA>   
 6 666619 Water For Pe… -4.23e-2   30.4  03/19/… Yes     Piped … Piped … <NA>   
 7 657081 Water For Pe…  1.58e-3   30.3  03/05/… Yes     <NA>    <NA>    Tapsta…
 8 669213 Water For Pe…  4.72e-2   30.4  09/07/… Yes     <NA>    <NA>    Tapsta…
 9 668012 Water For Pe…  2.95e-1   30.7  03/02/… Yes     <NA>    <NA>    Tapsta…
10 672047 Water For Pe…  2.85e-1   30.6  03/20/… Yes     Piped … Piped … <NA>   
# … with 406,556 more rows, 61 more variables: `#water_tech_category` <chr>,
#   `#facility_type` <chr>, `#clean_country_name` <chr>, `#clean_adm1` <chr>,
#   `#clean_adm2` <chr>, `#clean_adm3` <chr>, `#clean_adm4` <chr>,
#   `#install_year` <dbl>, `#installer` <chr>, `#rehab_year` <lgl>,
#   `#rehabilitator` <lgl>, `#management_clean` <chr>, `#status_clean` <chr>,
#   `#pay` <chr>, `#fecal_coliform_presence` <chr>,
#   `#fecal_coliform_value` <dbl>, `#subjective_quality` <chr>, …
…
[1] "Osun"

[1] "Nigeria"

We obtained the desired output, we are only left with data points located in Osun state, Nigeria

3.1.1 Converting water point data into sf point features

Using the st_as_sfc() function of the sf package, we convert the wkt field – `New Georeferenced Column` –into a sfc field.

wp_nga$Geometry = st_as_sfc(wp_nga$`New Georeferenced Column`)
wp_nga

# A tibble: 5,557 × 71
   row_id `#source`      #lat_…¹ #lon_…² #repo…³ #stat…⁴ #wate…⁵ #wate…⁶ #wate…⁷
    <dbl> <chr>            <dbl>   <dbl> <chr>   <chr>   <chr>   <chr>   <chr>  
 1 429123 GRID3             8.02    5.06 08/29/… Unknown <NA>    <NA>    Tapsta…
 2  70566 Federal Minis…    7.32    4.79 05/11/… No      Protec… Well    Mechan…
 3  70578 Federal Minis…    7.76    4.56 05/11/… No      Boreho… Well    Mechan…
 4  66401 Federal Minis…    8.03    4.64 04/30/… No      Boreho… Well    Mechan…
 5 422190 GRID3             7.87    4.88 08/29/… Unknown <NA>    <NA>    Tapsta…
 6 422064 GRID3             7.7     4.89 08/29/… Unknown <NA>    <NA>    Tapsta…
 7  65607 Federal Minis…    7.89    4.71 05/12/… No      Boreho… Well    Mechan…
 8  68989 Federal Minis…    7.51    4.27 05/07/… No      Boreho… Well    <NA>   
 9  67708 Federal Minis…    7.48    4.35 04/29/… Yes     Boreho… Well    Mechan…
10  66419 Federal Minis…    7.63    4.50 05/08/… Yes     Boreho… Well    Hand P…
# … with 5,547 more rows, 62 more variables: `#water_tech_category` <chr>,
#   `#facility_type` <chr>, `#clean_country_name` <chr>, `#clean_adm1` <chr>,
#   `#clean_adm2` <chr>, `#clean_adm3` <chr>, `#clean_adm4` <chr>,
#   `#install_year` <dbl>, `#installer` <chr>, `#rehab_year` <lgl>,
#   `#rehabilitator` <lgl>, `#management_clean` <chr>, `#status_clean` <chr>,
#   `#pay` <chr>, `#fecal_coliform_presence` <chr>,
#   `#fecal_coliform_value` <dbl>, `#subjective_quality` <chr>, …

Now, we can convert the tibble data frame into a sf object using the st_sf() function. We shall also specify the georeferencing system, crs code. Here, it seems like the data is referenced in WGS84.

wp_sf <- st_sf(wp_nga, crs=4326)
wp_sf

Simple feature collection with 5557 features and 70 fields
Geometry type: POINT
Dimension:     XY
Bounding box:  xmin: 4.032004 ymin: 7.060309 xmax: 5.06 ymax: 8.061898
Geodetic CRS:  WGS 84
# A tibble: 5,557 × 71
   row_id `#source`      #lat_…¹ #lon_…² #repo…³ #stat…⁴ #wate…⁵ #wate…⁶ #wate…⁷
 *  <dbl> <chr>            <dbl>   <dbl> <chr>   <chr>   <chr>   <chr>   <chr>  
 1 429123 GRID3             8.02    5.06 08/29/… Unknown <NA>    <NA>    Tapsta…
 2  70566 Federal Minis…    7.32    4.79 05/11/… No      Protec… Well    Mechan…
 3  70578 Federal Minis…    7.76    4.56 05/11/… No      Boreho… Well    Mechan…
 4  66401 Federal Minis…    8.03    4.64 04/30/… No      Boreho… Well    Mechan…
 5 422190 GRID3             7.87    4.88 08/29/… Unknown <NA>    <NA>    Tapsta…
 6 422064 GRID3             7.7     4.89 08/29/… Unknown <NA>    <NA>    Tapsta…
 7  65607 Federal Minis…    7.89    4.71 05/12/… No      Boreho… Well    Mechan…
 8  68989 Federal Minis…    7.51    4.27 05/07/… No      Boreho… Well    <NA>   
 9  67708 Federal Minis…    7.48    4.35 04/29/… Yes     Boreho… Well    Mechan…
10  66419 Federal Minis…    7.63    4.50 05/08/… Yes     Boreho… Well    Hand P…
# … with 5,547 more rows, 62 more variables: `#water_tech_category` <chr>,
#   `#facility_type` <chr>, `#clean_country_name` <chr>, `#clean_adm1` <chr>,
#   `#clean_adm2` <chr>, `#clean_adm3` <chr>, `#clean_adm4` <chr>,
#   `#install_year` <dbl>, `#installer` <chr>, `#rehab_year` <lgl>,
#   `#rehabilitator` <lgl>, `#management_clean` <chr>, `#status_clean` <chr>,
#   `#pay` <chr>, `#fecal_coliform_presence` <chr>,
#   `#fecal_coliform_value` <dbl>, `#subjective_quality` <chr>, …
…
